The Real-time Archives of Taiwan Legislative Data • legisTaiwan
…
Request Question Record

parlquestions <- get_parlquestions(term = 8, verbose = FALSE)
parlquestions_df <- parlquestions$data

Using str_detect from stringr to Find Topics

# 找看看「原住民」主題
library(stringr)
df <- parlquestions_df[str_detect(parlquestions_df[["item"]], "原住民", negate = FALSE),]
print(df[c("term", "item")])
#> # A tibble: 48 × 2
#>    term  item                                                                   
#>    <chr> <chr>                                                                  
#>  1 08    二十八、本院孔委員文吉，鑑於莫拉克颱風侵襲台灣中南部及東南部的山區，成…
#>  2 08    二十九、本院孔委員文吉、鑑於國立故宮博物院除持續致力於國內、外文物展出…
#>  3 08    三十、本院孔委員文吉，鑑於故宮博物院除應依據原住民族工作權保障法晉用原…
#>  4 08    五十八、本院黃委員昭順，針對日來「申請外籍看護」困難、「巴式量表」衍生…
#>  5 08    三、本院江委員惠貞，針對原住民同胞為我國重要族群，不僅傳承了悠久的文化…
#>  6 08    三十、本院徐委員欣瑩，有鑑於馬告國家公園在劃定範圍後因無法取得當地原住…
#>  7 08    五十七、本院黃委員昭順，對於莫拉克風災後，突顯我國山林保育沒有做好、樹…
#>  8 08    五十三、本院徐委員欣瑩，有鑑於幼兒教育及照顧法第十條規定，「離島、偏鄉…
#>  9 08    五十七、本院黃委員昭順，對於莫拉克風災後，突顯我國山林保育沒有做好、樹…
#> 10 08    一一六、本院徐委員欣瑩，有鑑於幼兒教育及照顧法第十條規定，「離島、偏鄉…
#> # … with 38 more rows
…
