The Records of the Bills
…
The get_bills function returns a list that contains query_time,
retrieved_number, meeting_unit, start_date_ad (A.D) , end_date_ad (A.D),
start_date, end_date, url, variable_names, manual_info, and data.

billdata$data
#> # A tibble: 12,519 × 9
#>    date   term  sessionPeriod sessionTimes billName billProposer billCosignatory
#>    <chr>  <chr> <chr>         <chr>        <chr>    <chr>        <chr>          
#>  1 11103… 10    05            02           公民投票法第三… 曾銘宗       "萬美玲 ; 鄭天財 ; 林…
#>  2 11103… 10    05            02           財政收支劃分法… 曾銘宗 ; 費鴻泰 ;… "廖婉汝 ; 洪孟楷 ; 葉…
#>  3 11103… 10    05            02           勞工保險條例第… 曾銘宗 ; 費鴻泰 ;… "鄭正鈐 ; 洪孟楷 ; 李…
#>  4 11103… 10    05            02           中華民國憲法增… 孔文吉       "陳雪生 ; 洪孟楷 ; 林…
#>  5 11103… 10    05            02           公平交易法第四… 洪孟楷       "廖國棟 ; 費鴻泰 ; 羅…
#>  6 11103… 10    05            02           國民教育法第二… 洪孟楷       "廖國棟 ; 林思銘 ; 鄭…
#>  7 11103… 10    05            02           職業安全衛生法… 洪孟楷       "費鴻泰 ; 林思銘 ; 徐…
#>  8 11103… 10    05            02           耕地三七五減租… 張育美       "溫玉霞 ; 洪孟楷 ; 吳…
#>  9 11103… 10    05            02           建築法第七十七… 張育美       "溫玉霞 ; 葉毓蘭 ; 李…
#> 10 11103… 10    05            02           道路交通管理處… 張育美       "林為洲 ; 洪孟楷 ; 羅…
#> # ℹ 12,509 more rows
#> # ℹ 2 more variables: billStatus <chr>, date_ad <date>
…
#> 
#> $url
#> [1] "https://data.ly.gov.tw/odw/ID20Action.action?term=11&sessionPeriod=&sessionTimes=&meetingTimes=&billName=&billOrg=&billProposer=&billCosignatory=&fileType=json"
#> 
#> $variable_names
#>  [1] "term"            "sessionPeriod"   "sessionTimes"    "meetingTimes"   
#>  [5] "billNo"          "billName"        "billOrg"         "billProposer"   
#>  [9] "billCosignatory" "billStatus"      "pdfUrl"          "docUrl"         
#> [13] "selectTerm"     
#> 
#> $manual_info
#> [1] "https://data.ly.gov.tw/getds.action?id=2"
#> 
#> $data
#> # A tibble: 2,880 × 13
#>    term  sessionPeriod sessionTimes meetingTimes billNo         billName billOrg
#>    <chr> <chr>         <chr>        <chr>        <chr>          <chr>    <chr>  
#>  1 11    01            01           ""           2021100024500… 「立法委員互選… 本院委員羅智…
#>  2 11    01            01           ""           2021100024700… 「再生醫療法草… 本院委員邱議…
#>  3 11    01            01           ""           2021100024600… 「再生醫療製劑… 本院委員邱議…
#>  4 11    01            01           ""           2021100024800… 「癌症防治法第… 本院委員邱議…
#>  5 11    01            01           ""           2021100032500… 「不在籍投票法… 本院委員王鴻…
#>  6 11    01            01           ""           2021100032600… 「預算法第八十… 本院委員王鴻…
#>  7 11    01            01           ""           2021100032700… 「核子反應器設… 本院委員王鴻…
#>  8 11    01            01           ""           2021100041700… 「立法院職權行… 本院台灣民眾…
#>  9 11    01            01           ""           2021100041800… 「貪污治罪條例… 本院台灣民眾…
#> 10 11    01            01           ""           2021100041900… 「立法委員互選… 本院台灣民眾…
#> # ℹ 2,870 more rows
#> # ℹ 6 more variables: billProposer <chr>, billCosignatory <chr>,
#> #   billStatus <chr>, pdfUrl <chr>, docUrl <chr>, selectTerm <chr>
