Retrieving the records of the questions answered by the executives 提供公報質詢事項行政院答復資訊 — get_executive_response • legisTaiwan
…
#> [1] 8
#> 
#> $url
#> [1] "https://data.ly.gov.tw/odw/ID2Action.action?term=08&sessionPeriod=01&sessionTimes=&item=&fileType=json"
#> 
#> $variable_names
#>  [1] "term"          "sessionPeriod" "sessionTimes"  "meetingTimes" 
#>  [5] "eyNumber"      "lyNumber"      "subject"       "content"      
#>  [9] "docUrl"        "selectTerm"   
#> 
#> $manual_info
#> [1] "https://data.ly.gov.tw/getds.action?id=2"
#> 
#> $data
#> # A tibble: 1,065 × 10
#>    term  sessionP…¹ sessi…² meeti…³ eyNum…⁴ lyNum…⁵ subject content docUrl
#>    <chr> <chr>      <chr>   <chr>   <chr>   <chr>   <chr>   <chr>   <chr> 
#>  1 08    01         01      null    （行政… （立法… （一八… 盧委員… http:…
#>  2 08    01         01      null    （行政… （立法… （一八… 陳委員… http:…
#>  3 08    01         01      null    （行政… （立法… （一八… 王委員… http:…
#>  4 08    01         01      null    （行政… （立法… （一八… 有關王… http:…
#>  5 08    01         01      null    （行政… （立法… （一八… 陳委員… http:…
#>  6 08    01         01      null    （行政… （立法… （一八… 陳委員… http:…
#>  7 08    01         01      null    （行政… （立法… （一八… 蔡委員… http:…
#>  8 08    01         01      null    （行政… （立法… （一八… 一、有… http:…
#>  9 08    01         01      null    （行政… （立法… （一八… 蔡委員… http:…
#> 10 08    01         01      null    （行政… （立法… （一九… 蔡委員… http:…
#> # … with 1,055 more rows, 1 more variable: selectTerm <chr>, and
#> #   abbreviated variable names ¹​sessionPeriod, ²​sessionTimes,
#> #   ³​meetingTimes, ⁴​eyNumber, ⁵​lyNumber
…
