Retrieving the records of bill sponsor and co-sponsor via Taiwan Legislative Yuan API — get_bills • legisTaiwan
…
#> [1] 1070310
#> 
#> $url
#> [1] "https://www.ly.gov.tw/WebAPI/LegislativeBill.aspx?from=1060120&to=1070310&proposer=&mode=json"
#> 
#> $variable_names
#> [1] "date"            "term"            "sessionPeriod"   "sessionTimes"   
#> [5] "billName"        "billProposer"    "billCosignatory" "billStatus"     
#> [9] "date_ad"        
#> 
#> $manual_info
#> [1] "https://www.ly.gov.tw/Pages/List.aspx?nodeid=153"
#> 
#> $data
#> # A tibble: 1,589 × 9
#>    date    term  sessionPer…¹ sessi…² billN…³ billP…⁴ billC…⁵ billS…⁶ date_ad   
#>    <chr>   <chr> <chr>        <chr>   <chr>   <chr>   <chr>   <chr>   <date>    
#>  1 1070309 09    05           03      公職人… 鄭寶清… "黃秀…  ""      2018-03-09
#>  2 1070309 09    05           03      電信管… 鄭寶清  "莊瑞…  ""      2018-03-09
#>  3 1070309 09    05           03      國民教… 親民黨… "莊瑞…  ""      2018-03-09
#>  4 1070309 09    05           03      中央行… 親民黨… "莊瑞…  ""      2018-03-09
#>  5 1070309 09    05           03      行政院… 親民黨… "莊瑞…  ""      2018-03-09
#>  6 1070309 09    05           03      行政院… 親民黨… "莊瑞…  ""      2018-03-09
#>  7 1070309 09    05           03      經濟部… 親民黨… "莊瑞…  ""      2018-03-09
#>  8 1070309 09    05           03      姓名條… 鄭天財  "徐榛…  ""      2018-03-09
#>  9 1070309 09    05           03      勞工保… 鄭天財  "曾銘…  ""      2018-03-09
#> 10 1070309 09    05           03      全民健… 鄭天財  "徐榛…  ""      2018-03-09
#> # … with 1,579 more rows, and abbreviated variable names ¹​sessionPeriod,
#> #   ²​sessionTimes, ³​billName, ⁴​billProposer, ⁵​billCosignatory, ⁶​billStatus
…
