The Records of Reviewed Items in the Committees 委員會會議審查之議案項目 — get_committee_record • legisTaiwan
…
#> $retrieved_term
#> [1] "08"
#> 
#> $url
#> [1] "https://data.ly.gov.tw/odw/ID46Action.action?term=08&sessionPeriod=01&sessionTimes=01&meetingTimes=&fileType=json"
#> 
#> $variable_names
#> [1] "term"          "sessionPeriod" "meetingNo"     "billNo"       
#> [5] "billName"      "docUrl"        "selectTerm"   
#> 
#> $manual_info
#> [1] "https://data.ly.gov.tw/getds.action?id=46"
#> 
#> $data
#> # A tibble: 613 × 7
#>    term  sessionPeriod meetingNo billNo           billName  docUrl selec…¹
#>    <chr> <chr>         <chr>     <chr>            <chr>     <chr>  <chr>  
#>  1 08    01            201203098 0990901071000100 國家通訊… https… all    
#>  2 08    01            201203098 0990903071100100 交通部函… https… all    
#>  3 08    01            201203098 1000525070100100 交通部函… https… all    
#>  4 08    01            201203098 1000602070100400 國家通訊… https… all    
#>  5 08    01            201203098 1000902070100400 國家通訊… https… all    
#>  6 08    01            201203098 1000907070100500 交通部函… https… all    
#>  7 08    01            201203098 1010224070202300 本院委員… https… all    
#>  8 08    01            201203099 1010224070200800 本院委員… https… all    
#>  9 08    01            201203099 1010224070200900 本院親民… https… all    
#> 10 08    01            201203099 1010224070202100 本院委員… https… all    
#> # … with 603 more rows, and abbreviated variable name ¹​selectTerm
…
