Retrieving full video information of meetings and committees 會議類:提供立法院院會及委員會之委員發言片段相關影片資訊。(自第9屆第1會期起) — get_speech_video • legisTaiwan
…
#> $url
#> [1] "https://data.ly.gov.tw/odw/ID148Action.action?term=&sessionPeriod=&meetingDateS=105/10/20&meetingDateE=109/03/10&meetingTime=&legislatorName=&fileType=json"
#> 
#> $variable_names
#>  [1] "term"            "sessionPeriod"   "meetingDate"    
#>  [4] "meetingTime"     "meetingTypeName" "meetingName"    
#>  [7] "meetingContent"  "legislatorName"  "areaName"       
#> [10] "speechStartTime" "speechEndTime"   "speechRecordUrl"
#> [13] "videoLength"     "videoUrl"        "selectTerm"     
#> 
#> $manual_info
#> [1] "https://data.ly.gov.tw/getds.action?id=8"
#> 
#> $data
#> # A tibble: 547 × 15
#>    term  session…¹ meeti…² meeti…³ meeti…⁴ meeti…⁵ meeti…⁶ legis…⁷ areaN…⁸
#>    <chr> <chr>     <chr>   <chr>   <chr>   <chr>   <chr>   <chr>   <chr>  
#>  1 10    1         2020-0… 09:00   院會    第10屆… "21日…  李德維  全國不…
#>  2 10    1         2020-0… 09:00   院會    第10屆… "21日…  賴香伶  全國不…
#>  3 10    1         2020-0… 09:00   院會    第10屆… "21日…  賴瑞隆  高雄市…
#>  4 10    1         2020-0… 09:00   院會    第10屆… "21日…  鄭運鵬  桃園市…
#>  5 10    1         2020-0… 09:00   院會    第10屆… "21日…  吳斯懷  全國不…
#>  6 10    1         2020-0… 09:00   院會    第10屆… "21日…  邱顯智  全國不…
#>  7 10    1         2020-0… 09:00   院會    第10屆… "21日…  高虹安  全國不…
#>  8 10    1         2020-0… 09:00   院會    第10屆… "21日…  楊瓊瓔  台中市…
#>  9 10    1         2020-0… 09:00   院會    第10屆… "21日…  李貴敏  全國不…
#> 10 10    1         2020-0… 09:00   院會    第10屆… "21日…  陳以信  全國不…
#> # … with 537 more rows, 6 more variables: speechStartTime <chr>,
#> #   speechEndTime <chr>, speechRecordUrl <chr>, videoLength <chr>,
#> #   videoUrl <chr>, selectTerm <chr>, and abbreviated variable names
#> #   ¹​sessionPeriod, ²​meetingDate, ³​meetingTime, ⁴​meetingTypeName,
#> #   ⁵​meetingName, ⁶​meetingContent, ⁷​legislatorName, ⁸​areaName
…
