Retrieving the records of national public debates 國是論壇 — get_public_debates • legisTaiwan
…
#> [1] 10
#> 
#> $url
#> [1] "https://data.ly.gov.tw/odw/ID7Action.action?term=10&sessionPeriod=02&sessionTimes=&meetingTimes=&legislatorName=&speakType=&fileType=json"
#> 
#> $variable_names
#>  [1] "term"           "sessionPeriod"  "sessionTimes"   "meetingTimes"  
#>  [5] "dateTimeDesc"   "meetingRoom"    "chairman"       "legislatorName"
#>  [9] "speakType"      "content"        "selectTerm"    
#> 
#> $manual_info
#> [1] "https://data.ly.gov.tw/getds.action?id=7"
#> 
#> $data
#> # A tibble: 39 × 11
#>    term  sessi…¹ sessi…² meeti…³ dateT…⁴ meeti…⁵ chair…⁶ legis…⁷ speak…⁸ content
#>    <chr> <chr>   <chr>   <chr>   <chr>   <chr>   <chr>   <chr>   <chr>   <chr>  
#>  1 10    02      02      null    中華民… 本院議… 游錫堃  葉毓蘭  speak   （9時… 
#>  2 10    02      02      null    中華民… 本院議… 游錫堃  洪孟楷  speak   （9時4…
#>  3 10    02      02      null    中華民… 本院議… 游錫堃  孔文吉  speak   （9時7…
#>  4 10    02      02      null    中華民… 本院議… 游錫堃  陳以信  speak   （9時1…
#>  5 10    02      02      null    中華民… 本院議… 游錫堃  李德維  speak   （9時1…
#>  6 10    02      02      null    中華民… 本院議… 游錫堃  李貴敏  speak   （9時1…
#>  7 10    02      02      null    中華民… 本院議… 游錫堃  林思銘  speak   （9時2…
#>  8 10    02      02      null    中華民… 本院議… 游錫堃  楊瓊瓔  speak   （9時2…
#>  9 10    02      02      null    中華民… 本院議… 游錫堃  溫玉霞  speak   （9時2…
#> 10 10    02      03      null    中華民… 本院議… 蔡其昌  李德維  speak   （9時1…
#> # … with 29 more rows, 1 more variable: selectTerm <chr>, and abbreviated
#> #   variable names ¹​sessionPeriod, ²​sessionTimes, ³​meetingTimes, ⁴​dateTimeDesc,
#> #   ⁵​meetingRoom, ⁶​chairman, ⁷​legislatorName, ⁸​speakType
…
#> [1] 10
#> 
#> $url
#> [1] "https://data.ly.gov.tw/odw/ID7Action.action?term=10&sessionPeriod=01&sessionTimes=&meetingTimes=&legislatorName=&speakType=&fileType=json"
#> 
#> $variable_names
#>  [1] "term"           "sessionPeriod"  "sessionTimes"   "meetingTimes"  
#>  [5] "dateTimeDesc"   "meetingRoom"    "chairman"       "legislatorName"
#>  [9] "speakType"      "content"        "selectTerm"    
#> 
#> $manual_info
#> [1] "https://data.ly.gov.tw/getds.action?id=7"
#> 
#> $data
#> # A tibble: 107 × 11
#>    term  sessi…¹ sessi…² meeti…³ dateT…⁴ meeti…⁵ chair…⁶ legis…⁷ speak…⁸ content
#>    <chr> <chr>   <chr>   <chr>   <chr>   <chr>   <chr>   <chr>   <chr>   <chr>  
#>  1 10    01      01      null    中華民… 本院議… 蔡其昌  江啟臣  speak   （9時1…
#>  2 10    01      01      null    中華民… 本院議… 蔡其昌  李德維  speak   （9時4…
#>  3 10    01      01      null    中華民… 本院議… 蔡其昌  楊瓊瓔  speak   （9時8…
#>  4 10    01      01      null    中華民… 本院議… 蔡其昌  邱臣遠  speak   （9時1…
#>  5 10    01      01      null    中華民… 本院議… 蔡其昌  李貴敏  speak   （9時1…
#>  6 10    01      01      null    中華民… 本院議… 蔡其昌  溫玉霞  speak   （9時1…
#>  7 10    01      01      null    中華民… 本院議… 蔡其昌  葉毓蘭  speak   （9時2…
#>  8 10    01      01      null    中華民… 本院議… 蔡其昌  洪孟楷  speak   （9時2…
#>  9 10    01      01      null    中華民… 本院議… 蔡其昌  吳斯懷  speak   （9時2…
#> 10 10    01      01      null    中華民… 本院議… 蔡其昌  吳怡玎  speak   （9時3…
#> # … with 97 more rows, 1 more variable: selectTerm <chr>, and abbreviated
#> #   variable names ¹​sessionPeriod, ²​sessionTimes, ³​meetingTimes, ⁴​dateTimeDesc,
#> #   ⁵​meetingRoom, ⁶​chairman, ⁷​legislatorName, ⁸​speakType
…
