Retrieving the records of parliamentary questions via Taiwan Legislative Yuan API 委員質詢事項 — get_parlquestions • legisTaiwan
…
#> $retrieved_term
#> [1] 8
#> 
#> $url
#> [1] "https://data.ly.gov.tw/odw/ID6Action.action?term=08&sessionPeriod=&sessionTimes=&item=&fileType=json"
#> 
#> $variable_names
#> [1] "term"          "sessionPeriod" "sessionTimes"  "item"         
#> [5] "selectTerm"   
#> 
#> $manual_info
#> [1] "https://data.ly.gov.tw/getds.action?id=6"
#> 
#> $data
#> # A tibble: 4,717 × 5
#>    term  sessionPeriod sessionTimes item                                select…¹
#>    <chr> <chr>         <chr>        <chr>                               <chr>   
#>  1 08    01            01           乙、本院委員質詢部分                all     
#>  2 08    01            01           一、本院楊委員瓊瓔，針對現行全球碳… all     
#>  3 08    01            01           二、本院楊委員瓊瓔，針對王金平院長… all     
#>  4 08    01            01           三、本院楊委員瓊瓔，針對消費性金融… all     
#>  5 08    01            01           四、本院楊委員瓊瓔，針對金融商品不… all     
#>  6 08    01            01           五、本院楊委員瓊瓔，針對消基會抽查… all     
#>  7 08    01            01           六、本院楊委員瓊瓔，針對公用電話現… all     
#>  8 08    01            01           七、本院楊委員瓊瓔，針對五都合併升… all     
#>  9 08    01            01           八、本院楊委員瓊瓔，有鑑若干工程師… all     
#> 10 08    01            01           九、本院楊委員瓊瓔，有鑑於往年連續… all     
#> # … with 4,707 more rows, and abbreviated variable name ¹​selectTerm
…
#> $retrieved_term
#> [1] 8
#> 
#> $url
#> [1] "https://data.ly.gov.tw/odw/ID6Action.action?term=08&sessionPeriod=02&sessionTimes=&item=&fileType=json"
#> 
#> $variable_names
#> [1] "term"          "sessionPeriod" "sessionTimes"  "item"         
#> [5] "selectTerm"   
#> 
#> $manual_info
#> [1] "https://data.ly.gov.tw/getds.action?id=6"
#> 
#> $data
#> # A tibble: 923 × 5
#>    term  sessionPeriod sessionTimes item                                 selec…¹
#>    <chr> <chr>         <chr>        <chr>                                <chr>  
#>  1 08    02            01           乙、本院委員質詢部分                 all    
#>  2 08    02            01           一、本院林委員滄敏，鑒於國立聯合大…  all    
#>  3 08    02            01           二、本院何委員欣純，為因應全球氣候…  all    
#>  4 08    02            01           三、本院何委員欣純，基於節能減碳已…  all    
#>  5 08    02            01           四、本院何委員欣純，為維護嬰幼兒健…  all    
#>  6 08    02            01           五、本院何委員欣純，針對台中市大里…  all    
#>  7 08    02            01           六、本院何委員欣純，針對中興大排係…  all    
#>  8 08    02            01           七、本院何委員欣純，針對台中市大里…  all    
#>  9 08    02            01           八、本院楊委員曜，針對101年度海軍評… all    
#> 10 08    02            01           九、本院魏委員明谷，針對經濟部邀請…  all    
#> # … with 913 more rows, and abbreviated variable name ¹​selectTerm
…
#> $retrieved_term
#> [1] 8
#> 
#> $url
#> [1] "https://data.ly.gov.tw/odw/ID6Action.action?term=08&sessionPeriod=02&sessionTimes=&item=&fileType=json"
#> 
#> $variable_names
#> [1] "term"          "sessionPeriod" "sessionTimes"  "item"         
#> [5] "selectTerm"   
#> 
#> $manual_info
#> [1] "https://data.ly.gov.tw/getds.action?id=6"
#> 
#> $data
#> # A tibble: 923 × 5
#>    term  sessionPeriod sessionTimes item                                 selec…¹
#>    <chr> <chr>         <chr>        <chr>                                <chr>  
#>  1 08    02            01           乙、本院委員質詢部分                 all    
#>  2 08    02            01           一、本院林委員滄敏，鑒於國立聯合大…  all    
#>  3 08    02            01           二、本院何委員欣純，為因應全球氣候…  all    
#>  4 08    02            01           三、本院何委員欣純，基於節能減碳已…  all    
#>  5 08    02            01           四、本院何委員欣純，為維護嬰幼兒健…  all    
#>  6 08    02            01           五、本院何委員欣純，針對台中市大里…  all    
#>  7 08    02            01           六、本院何委員欣純，針對中興大排係…  all    
#>  8 08    02            01           七、本院何委員欣純，針對台中市大里…  all    
#>  9 08    02            01           八、本院楊委員曜，針對101年度海軍評… all    
#> 10 08    02            01           九、本院魏委員明谷，針對經濟部邀請…  all    
#> # … with 913 more rows, and abbreviated variable name ¹​selectTerm
…
