Retrieving the meeting records of cross-caucus session 下載「黨團協商」資料 — get_caucus_meetings • legisTaiwan
…
#> 
#> $url
#> [1] "https://data.ly.gov.tw/odw/ID8Action.action?comYear=&comVolume=&comBookId=&term=&sessionPeriod=&sessionTimes=&meetingTimes=&meetingDateS=106/10/20&meetingDateE=107/03/10&fileType=json"
#> 
#> $variable_names
#>  [1] "comYear"       "comVolume"     "comBookId"     "term"         
#>  [5] "sessionPeriod" "sessionTimes"  "meetingTimes"  "meetingDate"  
#>  [9] "meetingName"   "subject"       "pageStart"     "pageEnd"      
#> [13] "docUrl"        "htmlUrl"       "selectTerm"   
#> 
#> $manual_info
#> [1] "https://data.ly.gov.tw/getds.action?id=8"
#> 
#> $data
#> # A tibble: 30 × 15
#>    comYear comVo…¹ comBo…² term  sessi…³ sessi…⁴ meeti…⁵ meeti…⁶ meeti…⁷ subject
#>    <chr>   <chr>   <chr>   <chr> <chr>   <chr>   <chr>   <chr>   <chr>   <chr>  
#>  1 103     43      "四"    08    05      12      null    101053… 黨團協… (一)行…
#>  2 103     43      "四"    08    05      12      null    102010… 黨團協… 行政院…
#>  3 106     103     "下"    null  null    null    null    1061120 黨團協… 研商本…
#>  4 106     108     ""      09    04      10      null    1061122 黨團協… 一、研…
#>  5 106     108     ""      09    04      10      null    1061129 黨團協… 研商「…
#>  6 106     113     "下"    null  null    null    null    1061130 黨團協… 繼續研…
#>  7 106     113     "下"    null  null    null    null    1061201 黨團協… 繼續研…
#>  8 106     116     "下"    09    04      12      null    1061208 黨團協… 繼續研…
#>  9 106     87      "下"    09    04      06      null    1061030 黨團協… 一、研…
#> 10 106     87      "下"    09    04      null    null    1061031 立法院… 一、研…
#> # … with 20 more rows, 5 more variables: pageStart <chr>, pageEnd <chr>,
#> #   docUrl <chr>, htmlUrl <chr>, selectTerm <chr>, and abbreviated variable
#> #   names ¹​comVolume, ²​comBookId, ³​sessionPeriod, ⁴​sessionTimes, ⁵​meetingTimes,
#> #   ⁶​meetingDate, ⁷​meetingName
…
