The Records of Legislation and the Executives Proposals 委員及政府議案提案資訊 — get_bills_2 • legisTaiwan
…
#> $url
#> [1] "https://data.ly.gov.tw/odw/ID20Action.action?term=08&sessionPeriod=01&sessionTimes=&meetingTimes=&billName=&billOrg=&billProposer=&billCosignatory=&fileType=json"
#> 
#> $variable_names
#>  [1] "term"            "sessionPeriod"   "sessionTimes"   
#>  [4] "meetingTimes"    "billNo"          "billName"       
#>  [7] "billOrg"         "billProposer"    "billCosignatory"
#> [10] "billStatus"      "pdfUrl"          "docUrl"         
#> [13] "selectTerm"     
#> 
#> $manual_info
#> [1] "https://data.ly.gov.tw/getds.action?id=2"
#> 
#> $data
#> # A tibble: 1,155 × 13
#>    term  sessionP…¹ sessi…² meeti…³ billNo billN…⁴ billOrg billP…⁵ billC…⁶
#>    <chr> <chr>      <chr>   <chr>   <chr>  <chr>   <chr>   <chr>   <chr>  
#>  1 08    01         02      ""      10102… 「公民… 本院委… "葉宜…  "潘孟… 
#>  2 08    01         02      ""      10102… 「兒童… 本院委… "葉宜…  "蔡其… 
#>  3 08    01         02      ""      10102… 「核子… 本院委… ""      ""     
#>  4 08    01         02      ""      10102… 「核子… 本院委… ""      ""     
#>  5 08    01         02      ""      10102… 「國家… 本院委… "潘孟…  "葉宜… 
#>  6 08    01         02      ""      10102… 「有線… 本院委… "潘孟…  "陳亭… 
#>  7 08    01         02      ""      10102… 「自來… 本院委… "李應…  "蔡煌… 
#>  8 08    01         02      ""      10102… 「就業… 本院委… "李應…  "蔡煌… 
#>  9 08    01         02      ""      10102… 「行政… 本院委… "李應…  "蔡煌… 
#> 10 08    01         02      ""      10102… 「立法… 本院委… ""      ""     
#> # … with 1,145 more rows, 4 more variables: billStatus <chr>,
#> #   pdfUrl <chr>, docUrl <chr>, selectTerm <chr>, and abbreviated
#> #   variable names ¹​sessionPeriod, ²​sessionTimes, ³​meetingTimes,
#> #   ⁴​billName, ⁵​billProposer, ⁶​billCosignatory
…
