The Spoken Meeting Records 委員發言 — get_meetings • legisTaiwan
…
#> [1] 1070310
#> 
#> $url
#> [1] "https://www.ly.gov.tw/WebAPI/LegislativeSpeech.aspx?from=1060120&to=1070310&meeting_unit=內政委員會&mode=json"
#> 
#> $variable_names
#> [1] "smeeting_date"   "meeting_status"  "meeting_name"   
#> [4] "meeting_content" "speechers"       "meeting_unit"   
#> [7] "date_ad"        
#> 
#> $manual_info
#> [1] "https://www.ly.gov.tw/Pages/List.aspx?nodeid=154"
#> 
#> $data
#> # A tibble: 104 × 7
#>    smeeting_date meeting_status meeting_name     meeting_content speechers
#>    <chr>         <chr>          <chr>            <chr>           <chr>    
#>  1 107/03/08     散會(10:58)    立法院第9屆第5會期內政委員會… "選舉本會召集委員"……  NA      
#>  2 106/12/28     散會(17:05)    立法院第9屆第4會期內政委員會… "一、繼續審查原住民族委員會…  NA      
#>  3 106/12/27     散會(17:36)    立法院第9屆第4會期內政委員會… "一、繼續審查委員王榮璋等1…  NA      
#>  4 106/12/25     散會(12:50)    立法院第9屆第4會期內政委員會… "一、都市更新條例：（一）審… " 0001 曾…
#>  5 106/12/25     散會(16:56)    立法院第9屆第4會期內政委員會… " "              NA      
#>  6 106/12/22     會議結束       立法院朝野黨團協商…… "本院內政委員會報告併案審查…  NA      
#>  7 106/12/21     散會(16:46)    立法院第9屆第4會期內政委員會… "一、審查「國籍法」：\r\… " 0001 曾…
#>  8 106/12/20     休息           立法院第9屆第4會期內政委員會… "一、繼續審查「原住民身分法… " 0001 黃…
#>  9 106/12/18     散會(16:15)    立法院第9屆第4會期內政委員會… "一、繼續審查107年度中央…  NA      
#> 10 106/12/14     散會(14:30)    立法院第9屆第4會期內政委員會… "一、審查委員洪宗熠等18人… " 0001 曾…
#> # ℹ 94 more rows
#> # ℹ 2 more variables: meeting_unit <chr>, date_ad <date>
…
