The Records of the Bills • legisTaiwan
…
$url: source API URL for the data

$variable_names: List of column names in the
dataset

$manual_info: Link to official documentation page

$data: tibble [12,519 × 9]

billdata$data returns tibble table containing relevent
information.

billdata$data
#> # A tibble: 12,519 × 9
#>    date    term  sessionPeriod sessionTimes billName          billProposer
#>    <chr>   <chr> <chr>         <chr>        <chr>             <chr>       
#>  1 1110304 10    05            02           公民投票法第三十條及第三十二條條… 曾銘宗      
#>  2 1110304 10    05            02           財政收支劃分法第十六條之二、第三… 曾銘宗 ; 費鴻泰 ;…
#>  3 1110304 10    05            02           勞工保險條例第六十六條及第六十九… 曾銘宗 ; 費鴻泰 ;…
#>  4 1110304 10    05            02           中華民國憲法增修條文第九條之一、… 孔文吉      
#>  5 1110304 10    05            02           公平交易法第四十二條條文修正草案… 洪孟楷      
#>  6 1110304 10    05            02           國民教育法第二條、第三條及第六條… 洪孟楷      
#>  7 1110304 10    05            02           職業安全衛生法第一條、第六條及第… 洪孟楷      
#>  8 1110304 10    05            02           耕地三七五減租條例第十九條及第三… 張育美      
#>  9 1110304 10    05            02           建築法第七十七條之一及第九十一條… 張育美      
#> 10 1110304 10    05            02           道路交通管理處罰條例第三十一條條… 張育美      
#> # ℹ 12,509 more rows
#> # ℹ 3 more variables: billCosignatory <chr>, billStatus <chr>,
#> #   date_ad <date>
…
#> $url
#> [1] "https://data.ly.gov.tw/odw/ID20Action.action?term=11&sessionPeriod=&sessionTimes=&meetingTimes=&billName=&billOrg=&billProposer=&billCosignatory=&fileType=json"
#> 
#> $variable_names
#>  [1] "term"            "sessionPeriod"   "sessionTimes"   
#>  [4] "meetingTimes"    "billNo"          "billName"       
#>  [7] "billOrg"         "billProposer"    "billCosignatory"
#> [10] "billStatus"      "pdfUrl"          "docUrl"         
#> [13] "selectTerm"     
#> 
#> $manual_info
#> [1] "https://data.ly.gov.tw/getds.action?id=2"
#> 
#> $data
#> # A tibble: 2,880 × 13
#>    term  sessionPeriod sessionTimes meetingTimes billNo   billName billOrg
#>    <chr> <chr>         <chr>        <chr>        <chr>    <chr>    <chr>  
#>  1 11    01            01           ""           2021100… 「立法委員互選… 本院委員羅智…
#>  2 11    01            01           ""           2021100… 「再生醫療法草… 本院委員邱議…
#>  3 11    01            01           ""           2021100… 「再生醫療製劑… 本院委員邱議…
#>  4 11    01            01           ""           2021100… 「癌症防治法第… 本院委員邱議…
#>  5 11    01            01           ""           2021100… 「不在籍投票法… 本院委員王鴻…
#>  6 11    01            01           ""           2021100… 「預算法第八十… 本院委員王鴻…
#>  7 11    01            01           ""           2021100… 「核子反應器設… 本院委員王鴻…
#>  8 11    01            01           ""           2021100… 「立法院職權行… 本院台灣民眾…
#>  9 11    01            01           ""           2021100… 「貪污治罪條例… 本院台灣民眾…
#> 10 11    01            01           ""           2021100… 「立法委員互選… 本院台灣民眾…
#> # ℹ 2,870 more rows
#> # ℹ 6 more variables: billProposer <chr>, billCosignatory <chr>,
#> #   billStatus <chr>, pdfUrl <chr>, docUrl <chr>, selectTerm <chr>
…
