The Meeting Records of Cross-caucus Session 黨團協商資訊 — get_caucus_meetings • legisTaiwan
…
#> 
#> $url
#> [1] "https://data.ly.gov.tw/odw/ID8Action.action?comYear=&comVolume=&comBookId=&term=&sessionPeriod=&sessionTimes=&meetingTimes=&meetingDateS=106/10/20&meetingDateE=107/03/10&fileType=json"
#> 
#> $variable_names
#>  [1] "comYear"       "comVolume"     "comBookId"     "term"         
#>  [5] "sessionPeriod" "sessionTimes"  "meetingTimes"  "meetingDate"  
#>  [9] "meetingName"   "subject"       "pageStart"     "pageEnd"      
#> [13] "docUrl"        "htmlUrl"       "selectTerm"   
#> 
#> $manual_info
#> [1] "https://data.ly.gov.tw/getds.action?id=8"
#> 
#> $data
#> # A tibble: 27 × 15
#>    comYear comVolume comBookId term  sessionPeriod sessionTimes
#>    <chr>   <chr>     <chr>     <chr> <chr>         <chr>       
#>  1 103     43        "四"      08    05            12          
#>  2 103     43        "四"      08    05            12          
#>  3 106     103       "下"      null  null          null        
#>  4 106     108       ""        09    04            10          
#>  5 106     108       ""        09    04            10          
#>  6 106     113       "下"      null  null          null        
#>  7 106     113       "下"      null  null          null        
#>  8 106     116       "下"      09    04            12          
#>  9 106     87        "下"      09    04            06          
#> 10 106     87        "下"      09    04            null        
#> # ℹ 17 more rows
#> # ℹ 9 more variables: meetingTimes <chr>, meetingDate <chr>,
#> #   meetingName <chr>, subject <chr>, pageStart <chr>, pageEnd <chr>,
#> #   docUrl <chr>, htmlUrl <chr>, selectTerm <chr>
…
