An Example of Party Caucus Negotiation • legisTaiwan
…
library(legisTaiwan)
#> Error in get(paste0(generic, ".", class), envir = get_method_env()) : 
#>   object 'type_sum.accel' not found
#> ## legisTaiwan                                            ##
#> ## An R package connecting to the Taiwan Legislative API. ##

caucus_df <- get_caucus_meetings(start_date = "111/09/23", end_date = "112/01/19", verbose = FALSE)

caucus_df$data
#> # A tibble: 43 × 15
#>    comYear comVolume comBookId term  sessionPeriod sessionTimes
#>    <chr>   <chr>     <chr>     <chr> <chr>         <chr>       
#>  1 103     43        "四"      08    05            12          
#>  2 103     43        "四"      08    05            12          
#>  3 111     101       "下"      null  null          null        
#>  4 111     104       ""        10    06            08          
#>  5 111     104       ""        10    06            08          
#>  6 111     105       "下"      null  null          null        
#>  7 111     107       ""        null  null          null        
#>  8 111     114       "下"      null  null          null        
#>  9 111     86        ""        10    06            01          
#> 10 111     87        ""        10    06            02          
#> # ℹ 33 more rows
#> # ℹ 9 more variables: meetingTimes <chr>, meetingDate <chr>,
#> #   meetingName <chr>, subject <chr>, pageStart <chr>, pageEnd <chr>,
#> #   docUrl <chr>, htmlUrl <chr>, selectTerm <chr>
…
