以「法律提案」為例 • legisTaiwan
…
#> [1] 1110310
#> 
#> $url
#> [1] "https://www.ly.gov.tw/WebAPI/LegislativeBill.aspx?from=1060120&to=1110310&proposer=周春米&mode=json"
#> 
#> $variable_names
#> [1] "date"            "term"            "sessionPeriod"  
#> [4] "sessionTimes"    "billName"        "billProposer"   
#> [7] "billCosignatory" "billStatus"      "date_ad"        
#> 
#> $manual_info
#> [1] "https://www.ly.gov.tw/Pages/List.aspx?nodeid=153"
#> 
#> $data
#> # A tibble: 147 × 9
#>    date    term  sessionPeriod sessionTimes billName          billProposer
#>    <chr>   <chr> <chr>         <chr>        <chr>             <chr>       
#>  1 1101224 10    04            15           民法增訂第一百九… 周春米 ; 賴…
#>  2 1101224 10    04            15           民法債編施行法增… 周春米 ; 賴…
#>  3 1101224 10    04            15           兒童及少年福利與… 蘇巧慧 ; 莊…
#>  4 1101210 10    04            13           立法院組織法第五… 伍麗華 ; 周…
#>  5 1101210 10    04            13           災害防救法增訂第… 伍麗華 ; 陳…
#>  6 1101210 10    04            13           地方民意代表費用… 周春米 ; 伍…
#>  7 1101210 10    04            13           行政罰法第五條條… 周春米 ; 伍…
#>  8 1101210 10    04            13           私立高級中等以上… 周春米 ; 伍…
#>  9 1101210 10    04            13           勞動基準法第四十… 周春米 ; 吳…
#> 10 1101210 10    04            13           中華民國刑法第七… 周春米 ; 湯…
#> # ℹ 137 more rows
#> # ℹ 3 more variables: billCosignatory <chr>, billStatus <chr>,
#> #   date_ad <date>
…
#> [1] 1110310
#> 
#> $url
#> [1] "https://www.ly.gov.tw/WebAPI/LegislativeBill.aspx?from=1060120&to=1110310&proposer=莊瑞雄&mode=json"
#> 
#> $variable_names
#> [1] "date"            "term"            "sessionPeriod"  
#> [4] "sessionTimes"    "billName"        "billProposer"   
#> [7] "billCosignatory" "billStatus"      "date_ad"        
#> 
#> $manual_info
#> [1] "https://www.ly.gov.tw/Pages/List.aspx?nodeid=153"
#> 
#> $data
#> # A tibble: 528 × 9
#>    date    term  sessionPeriod sessionTimes billName          billProposer
#>    <chr>   <chr> <chr>         <chr>        <chr>             <chr>       
#>  1 1101224 10    04            15           兒童及少年福利與… 蘇巧慧 ; 莊…
#>  2 1101224 10    04            15           大學法第九條條文… 賴品妤 ; 莊…
#>  3 1101224 10    04            15           地方民意代表費用… 許智傑 ; 莊…
#>  4 1101224 10    04            15           中華民國刑法刪除… 許智傑 ; 伍…
#>  5 1101224 10    04            15           中華民國刑法第九… 許智傑 ; 伍…
#>  6 1101224 10    04            15           消費者保護法第十… 許智傑 ; 江…
#>  7 1101224 10    04            15           性別工作平等法第… 莊瑞雄 ; 蔡…
#>  8 1101224 10    04            15           產業創新條例第十… 賴瑞隆 ; 邱…
#>  9 1101224 10    04            15           民法親屬編部分條… 范雲 ; 莊瑞…
#> 10 1101224 10    04            15           產業創新條例第十… 林宜瑾 ; 伍…
#> # ℹ 518 more rows
#> # ℹ 3 more variables: billCosignatory <chr>, billStatus <chr>,
#> #   date_ad <date>
…
