以「立委質詢」為例 • legisTaiwan
…
計算某位立法委員一共提出幾次有關「中國」字眼之質詢

cat("李應元", sum(stringr::str_count(Q8_China$item, pattern = "本院李委員應元")), "\n")
#> 李應元 28
cat("丁守中", sum(stringr::str_count(Q8_China$item, pattern = "本院丁委員守中")), "\n")
#> 丁守中 18
cat("陳其邁", sum(stringr::str_count(Q8_China$item, pattern = "本院陳委員其邁")), "\n")
#> 陳其邁 8

李應元立員提出幾次有提到中國字眼之質詢

Q8_China_li <- Q8_China[str_detect(Q8_China[["item"]], "本院李委員應元", negate = FALSE),]
Q8_China_li[c("item")]
#> # A tibble: 28 × 1
#>    item                                                                  
#>    <chr>                                                                 
#>  1 "二十四、本院李委員應元，針對連任成功後的馬英九總統，新內閣的布局大致…
#>  2 "二十八、本院李委員應元，針對農曆春節前有中國觀光客在香港地鐵上飲食，…
#>  3 "三十五、本院李委員應元，針對馬英九勝選之後，認為解決台灣經濟只有二大…
#>  4 "四十三、本院李委員應元，針對這次的總統大選過程中，中國與美國各自基於…
#>  5 "四十七、本院李委員應元，針對媒體報導，日前國軍退役上將夏瀛洲在中國西…
#>  6 "四十八、本院李委員應元，針對媒體報導日前國軍退役上將夏瀛洲在中國西安…
#>  7 "四十九、本院李委員應元，針對總統大選後，中國國台辦副主任、海協會副會…
#>  8 "五十一、本院李委員應元，針對馬政府對防禦軍購向來口是心非、態度消極，…
#>  9 "三十一、本院李委員應元，針對台灣面對中國不僅不可忽視其存在，也必須與…
#> 10 "一一四、本院李委員應元，針對中國國民黨榮譽主席吳伯雄在中國與胡錦濤見…
#> # … with 18 more rows
…
