綜合案例Ⅰ-李宜展 • legisTaiwan
…
計算某位立法委員一共提出幾次有關「中國」字眼之質詢

cat("李應元", sum(stringr::str_count(Q8_China$item, pattern = "本院李委員應元")), "\n")
#> 李應元 28
cat("丁守中", sum(stringr::str_count(Q8_China$item, pattern = "本院丁委員守中")), "\n")
#> 丁守中 18
cat("陳其邁", sum(stringr::str_count(Q8_China$item, pattern = "本院陳委員其邁")), "\n")
#> 陳其邁 8

李應元立員提出幾次有提到中國字眼之質詢

Q8_China_li <- Q8_China[str_detect(Q8_China[["item"]], "本院李委員應元", negate = FALSE),]
Q8_China_li[c("item")]
#> # A tibble: 28 × 1
#>    item                                                                  
#>    <chr>                                                                 
#>  1 "二十四、本院李委員應元，針對連任成功後的馬英九總統，新內閣的布局大致…
#>  2 "二十八、本院李委員應元，針對農曆春節前有中國觀光客在香港地鐵上飲食，…
#>  3 "三十五、本院李委員應元，針對馬英九勝選之後，認為解決台灣經濟只有二大…
#>  4 "四十三、本院李委員應元，針對這次的總統大選過程中，中國與美國各自基於…
#>  5 "四十七、本院李委員應元，針對媒體報導，日前國軍退役上將夏瀛洲在中國西…
#>  6 "四十八、本院李委員應元，針對媒體報導日前國軍退役上將夏瀛洲在中國西安…
#>  7 "四十九、本院李委員應元，針對總統大選後，中國國台辦副主任、海協會副會…
#>  8 "五十一、本院李委員應元，針對馬政府對防禦軍購向來口是心非、態度消極，…
#>  9 "三十一、本院李委員應元，針對台灣面對中國不僅不可忽視其存在，也必須與…
#> 10 "一一四、本院李委員應元，針對中國國民黨榮譽主席吳伯雄在中國與胡錦濤見…
#> # … with 18 more rows
…
#> [1] 1110310
#> 
#> $url
#> [1] "https://www.ly.gov.tw/WebAPI/LegislativeBill.aspx?from=1060120&to=1110310&proposer=周春米&mode=json"
#> 
#> $variable_names
#> [1] "date"            "term"            "sessionPeriod"  
#> [4] "sessionTimes"    "billName"        "billProposer"   
#> [7] "billCosignatory" "billStatus"      "date_ad"        
#> 
#> $manual_info
#> [1] "https://www.ly.gov.tw/Pages/List.aspx?nodeid=153"
#> 
#> $data
#> # A tibble: 147 × 9
#>    date   term  sessi…¹ sessi…² billN…³ billP…⁴ billC…⁵ billS…⁶ date_ad   
#>    <chr>  <chr> <chr>   <chr>   <chr>   <chr>   <chr>   <chr>   <date>    
#>  1 11012… 10    04      15      民法增… 周春米… "蔡易…  ""      2021-12-24
#>  2 11012… 10    04      15      民法債… 周春米… "鄭運…  ""      2021-12-24
#>  3 11012… 10    04      15      兒童及… 蘇巧慧… "陳秀…  ""      2021-12-24
#>  4 11012… 10    04      13      立法院… 伍麗華… "鍾佳…  ""      2021-12-10
#>  5 11012… 10    04      13      災害防… 伍麗華… "蔡適…  ""      2021-12-10
#>  6 11012… 10    04      13      地方民… 周春米… "吳思…  ""      2021-12-10
#>  7 11012… 10    04      13      行政罰… 周春米… "羅美…  ""      2021-12-10
#>  8 11012… 10    04      13      私立高… 周春米… "吳思…  ""      2021-12-10
#>  9 11012… 10    04      13      勞動基… 周春米… "蔡適…  ""      2021-12-10
#> 10 11012… 10    04      13      中華民… 周春米… "蔡適…  ""      2021-12-10
#> # … with 137 more rows, and abbreviated variable names ¹​sessionPeriod,
#> #   ²​sessionTimes, ³​billName, ⁴​billProposer, ⁵​billCosignatory,
#> #   ⁶​billStatus
…
#> [1] 1110310
#> 
#> $url
#> [1] "https://www.ly.gov.tw/WebAPI/LegislativeBill.aspx?from=1060120&to=1110310&proposer=莊瑞雄&mode=json"
#> 
#> $variable_names
#> [1] "date"            "term"            "sessionPeriod"  
#> [4] "sessionTimes"    "billName"        "billProposer"   
#> [7] "billCosignatory" "billStatus"      "date_ad"        
#> 
#> $manual_info
#> [1] "https://www.ly.gov.tw/Pages/List.aspx?nodeid=153"
#> 
#> $data
#> # A tibble: 528 × 9
#>    date   term  sessi…¹ sessi…² billN…³ billP…⁴ billC…⁵ billS…⁶ date_ad   
#>    <chr>  <chr> <chr>   <chr>   <chr>   <chr>   <chr>   <chr>   <date>    
#>  1 11012… 10    04      15      性別工… 莊瑞雄… "羅致…  ""      2021-12-24
#>  2 11012… 10    04      15      產業創… 賴瑞隆… "王美…  ""      2021-12-24
#>  3 11012… 10    04      15      兒童及… 蘇巧慧… "陳秀…  ""      2021-12-24
#>  4 11012… 10    04      15      民法親… 范雲 ;… "王美…  ""      2021-12-24
#>  5 11012… 10    04      15      產業創… 林宜瑾… "吳秉…  ""      2021-12-24
#>  6 11012… 10    04      15      產業創… 蔡易餘… "吳秉…  ""      2021-12-24
#>  7 11012… 10    04      15      大學法… 賴品妤… "周春…  ""      2021-12-24
#>  8 11012… 10    04      15      地方民… 許智傑… "高嘉…  ""      2021-12-24
#>  9 11012… 10    04      15      中華民… 許智傑… "高嘉…  ""      2021-12-24
#> 10 11012… 10    04      15      中華民… 許智傑… "高嘉…  ""      2021-12-24
#> # … with 518 more rows, and abbreviated variable names ¹​sessionPeriod,
#> #   ²​sessionTimes, ³​billName, ⁴​billProposer, ⁵​billCosignatory,
#> #   ⁶​billStatus
…
